{
    "$schema": "http://json-schema.org/draft-07/schema",
    "$id": "http://example.com/example.json",
    "type": "object",
    "title": "The root schema",
    "description": "The root schema comprises the entire JSON document.",
    "default": {},
    "examples": [
        {
            "replicaCount": 1,
            "image": {
                "repository": "nginx",
                "pullPolicy": "IfNotPresent"
            },
            "imagePullSecrets": [],
            "nameOverride": "",
            "fullnameOverride": "",
            "serviceAccount": {
                "create": true,
                "name": null
            },
            "podSecurityContext": {},
            "securityContext": {},
            "service": {
                "type": "ClusterIP",
                "port": 80
            },
            "ingress": {
                "enabled": false,
                "annotations": {},
                "hosts": [
                    {
                        "host": "chart-example.local",
                        "paths": []
                    }
                ],
                "tls": []
            },
            "resources": {},
            "nodeSelector": {},
            "tolerations": [],
            "affinity": {}
        }
    ],
    "required": [
        "replicaCount",
        "image",
        "imagePullSecrets",
        "nameOverride",
        "fullnameOverride",
        "serviceAccount",
        "podSecurityContext",
        "securityContext",
        "service",
        "ingress",
        "resources",
        "nodeSelector",
        "tolerations",
        "affinity"
    ],
    "properties": {
        "replicaCount": {
            "$id": "#/properties/replicaCount",
            "type": "integer",
            "title": "The replicaCount schema",
            "description": "An explanation about the purpose of this instance.",
            "default": 0,
            "examples": [
                1
            ]
        },
        "image": {
            "$id": "#/properties/image",
            "type": "object",
            "title": "The image schema",
            "description": "An explanation about the purpose of this instance.",
            "default": {},
            "examples": [
                {
                    "repository": "nginx",
                    "pullPolicy": "IfNotPresent"
                }
            ],
            "required": [
                "repository",
                "pullPolicy"
            ],
            "properties": {
                "repository": {
                    "$id": "#/properties/image/properties/repository",
                    "type": "string",
                    "title": "The repository schema",
                    "description": "An explanation about the purpose of this instance.",
                    "default": "",
                    "examples": [
                        "nginx"
                    ]
                },
                "pullPolicy": {
                    "$id": "#/properties/image/properties/pullPolicy",
                    "type": "string",
                    "title": "The pullPolicy schema",
                    "description": "An explanation about the purpose of this instance.",
                    "default": "",
                    "examples": [
                        "IfNotPresent"
                    ]
                }
            },
            "additionalProperties": true
        },
        "imagePullSecrets": {
            "$id": "#/properties/imagePullSecrets",
            "type": "array",
            "title": "The imagePullSecrets schema",
            "description": "An explanation about the purpose of this instance.",
            "default": [],
            "examples": [
                []
            ],
            "additionalItems": true,
            "items": {
                "$id": "#/properties/imagePullSecrets/items"
            }
        },
        "nameOverride": {
            "$id": "#/properties/nameOverride",
            "type": "string",
            "title": "The nameOverride schema",
            "description": "An explanation about the purpose of this instance.",
            "default": "",
            "examples": [
                ""
            ]
        },
        "fullnameOverride": {
            "$id": "#/properties/fullnameOverride",
            "type": "string",
            "title": "The fullnameOverride schema",
            "description": "An explanation about the purpose of this instance.",
            "default": "",
            "examples": [
                ""
            ]
        },
        "serviceAccount": {
            "$id": "#/properties/serviceAccount",
            "type": "object",
            "title": "The serviceAccount schema",
            "description": "An explanation about the purpose of this instance.",
            "default": {},
            "examples": [
                {
                    "create": true,
                    "name": ""
                }
            ],
            "required": [
                "create"
            ],
            "properties": {
                "create": {
                    "$id": "#/properties/serviceAccount/properties/create",
                    "type": "boolean",
                    "title": "The create schema",
                    "description": "An explanation about the purpose of this instance.",
                    "default": false,
                    "examples": [
                        true
                    ]
                },
                "name": {
                    "$id": "#/properties/serviceAccount/properties/name",
                    "type": "null",
                    "title": "The name schema",
                    "description": "An explanation about the purpose of this instance.",
                    "default": "",
                    "examples": [
                        ""
                    ]
                }
            },
            "additionalProperties": true
        },
        "podSecurityContext": {
            "$id": "#/properties/podSecurityContext",
            "type": "object",
            "title": "The podSecurityContext schema",
            "description": "An explanation about the purpose of this instance.",
            "default": {},
            "examples": [
                {}
            ],
            "required": [],
            "additionalProperties": true
        },
        "securityContext": {
            "$id": "#/properties/securityContext",
            "type": "object",
            "title": "The securityContext schema",
            "description": "An explanation about the purpose of this instance.",
            "default": {},
            "examples": [
                {}
            ],
            "required": [],
            "additionalProperties": true
        },
        "service": {
            "$id": "#/properties/service",
            "type": "object",
            "title": "The service schema",
            "description": "An explanation about the purpose of this instance.",
            "default": {},
            "examples": [
                {
                    "type": "ClusterIP",
                    "port": 80
                }
            ],
            "required": [
                "type",
                "port"
            ],
            "properties": {
                "type": {
                    "$id": "#/properties/service/properties/type",
                    "type": "string",
                    "title": "The type schema",
                    "description": "An explanation about the purpose of this instance.",
                    "default": "",
                    "examples": [
                        "ClusterIP"
                    ]
                },
                "port": {
                    "$id": "#/properties/service/properties/port",
                    "type": "integer",
                    "title": "The port schema",
                    "description": "An explanation about the purpose of this instance.",
                    "default": 0,
                    "examples": [
                        80
                    ]
                }
            },
            "additionalProperties": true
        },
        "ingress": {
            "$id": "#/properties/ingress",
            "type": "object",
            "title": "The ingress schema",
            "description": "An explanation about the purpose of this instance.",
            "default": {},
            "examples": [
                {
                    "enabled": false,
                    "annotations": {},
                    "hosts": [
                        {
                            "host": "chart-example.local",
                            "paths": []
                        }
                    ],
                    "tls": []
                }
            ],
            "required": [
                "enabled",
                "annotations",
                "hosts",
                "tls"
            ],
            "properties": {
                "enabled": {
                    "$id": "#/properties/ingress/properties/enabled",
                    "type": "boolean",
                    "title": "The enabled schema",
                    "description": "An explanation about the purpose of this instance.",
                    "default": false,
                    "examples": [
                        false
                    ]
                },
                "annotations": {
                    "$id": "#/properties/ingress/properties/annotations",
                    "type": "object",
                    "title": "The annotations schema",
                    "description": "An explanation about the purpose of this instance.",
                    "default": {},
                    "examples": [
                        {}
                    ],
                    "required": [],
                    "additionalProperties": true
                },
                "hosts": {
                    "$id": "#/properties/ingress/properties/hosts",
                    "type": "array",
                    "title": "The hosts schema",
                    "description": "An explanation about the purpose of this instance.",
                    "default": [],
                    "examples": [
                        [
                            {
                                "host": "chart-example.local",
                                "paths": []
                            }
                        ]
                    ],
                    "additionalItems": true,
                    "items": {
                        "$id": "#/properties/ingress/properties/hosts/items",
                        "anyOf": [
                            {
                                "$id": "#/properties/ingress/properties/hosts/items/anyOf/0",
                                "type": "object",
                                "title": "The first anyOf schema",
                                "description": "An explanation about the purpose of this instance.",
                                "default": {},
                                "examples": [
                                    {
                                        "host": "chart-example.local",
                                        "paths": []
                                    }
                                ],
                                "required": [
                                    "host",
                                    "paths"
                                ],
                                "properties": {
                                    "host": {
                                        "$id": "#/properties/ingress/properties/hosts/items/anyOf/0/properties/host",
                                        "type": "string",
                                        "title": "The host schema",
                                        "description": "An explanation about the purpose of this instance.",
                                        "default": "",
                                        "examples": [
                                            "chart-example.local"
                                        ]
                                    },
                                    "paths": {
                                        "$id": "#/properties/ingress/properties/hosts/items/anyOf/0/properties/paths",
                                        "type": "array",
                                        "title": "The paths schema",
                                        "description": "An explanation about the purpose of this instance.",
                                        "default": [],
                                        "examples": [
                                            []
                                        ],
                                        "additionalItems": true,
                                        "items": {
                                            "$id": "#/properties/ingress/properties/hosts/items/anyOf/0/properties/paths/items"
                                        }
                                    }
                                },
                                "additionalProperties": true
                            }
                        ]
                    }
                },
                "tls": {
                    "$id": "#/properties/ingress/properties/tls",
                    "type": "array",
                    "title": "The tls schema",
                    "description": "An explanation about the purpose of this instance.",
                    "default": [],
                    "examples": [
                        []
                    ],
                    "additionalItems": true,
                    "items": {
                        "$id": "#/properties/ingress/properties/tls/items"
                    }
                }
            },
            "additionalProperties": true
        },
        "resources": {
            "$id": "#/properties/resources",
            "type": "object",
            "title": "The resources schema",
            "description": "An explanation about the purpose of this instance.",
            "default": {},
            "examples": [
                {}
            ],
            "required": [],
            "additionalProperties": true
        },
        "nodeSelector": {
            "$id": "#/properties/nodeSelector",
            "type": "object",
            "title": "The nodeSelector schema",
            "description": "An explanation about the purpose of this instance.",
            "default": {},
            "examples": [
                {}
            ],
            "required": [],
            "additionalProperties": true
        },
        "tolerations": {
            "$id": "#/properties/tolerations",
            "type": "array",
            "title": "The tolerations schema",
            "description": "An explanation about the purpose of this instance.",
            "default": [],
            "examples": [
                []
            ],
            "additionalItems": true,
            "items": {
                "$id": "#/properties/tolerations/items"
            }
        },
        "affinity": {
            "$id": "#/properties/affinity",
            "type": "object",
            "title": "The affinity schema",
            "description": "An explanation about the purpose of this instance.",
            "default": {},
            "examples": [
                {}
            ],
            "required": [],
            "additionalProperties": true
        }
    },
    "additionalProperties": true
}